5524173772616947559b0200
4f5f64c13b555230ac000001
535842f6c9dc246615000165
4d8b92a44eb68a1b2c000328
529c4b09139b21cdd4000250
506b33134466170002000254
52aa13959c18dbddef00024b
4e96f6e23e43de00010050cb
55f0747b7261693808000030
4f5f64c13b555230ac000004
4f552b2e3b55524170000003
4f5f64c13b555230ac000008
52d4a2479c18db3c5d00036d
530ba0b5a09a6701380000ab
52840714275b2442c8000150
